<?xml version="1.0" standalone="no"?>
<!DOCTYPE svg PUBLIC "-//W3C//DTD SVG 1.1//EN" "http://www.w3.org/Graphics/SVG/1.1/DTD/svg11.dtd" >
<svg xmlns="http://www.w3.org/2000/svg">
<metadata>Generated by IcoMoon</metadata>
<defs>
<font id="icomoon" horiz-adv-x="1024">
<font-face units-per-em="1024" ascent="960" descent="-64" />
<missing-glyph horiz-adv-x="1024" />
<glyph unicode="&#x20;" horiz-adv-x="512" d="" />
<glyph unicode="&#xe900;" glyph-name="account-multiple" d="M682.667 405.333c-12.373 0-26.453 0-41.387-2.133 49.493-35.84 84.053-83.2 84.053-147.2v-106.667h256v106.667c0 99.413-199.253 149.333-298.667 149.333zM341.333 405.333c-99.413 0-298.667-49.92-298.667-149.333v-106.667h597.333v106.667c0 99.413-199.253 149.333-298.667 149.333zM341.333 490.667c70.692 0 128 57.308 128 128v0c0 70.692-57.308 128-128 128v0c-70.692 0-128-57.308-128-128v0c0-70.692 57.308-128 128-128v0zM682.667 490.667c70.692 0 128 57.308 128 128v0c0 70.692-57.308 128-128 128v0c-70.692 0-128-57.308-128-128v0c0-70.692 57.308-128 128-128v0z" />
<glyph unicode="&#xe901;" glyph-name="arrow" d="M657.493 252.587l-195.413 195.413 195.413 195.84-60.16 60.16-256-256 256-256 60.16 60.587z" />
<glyph unicode="&#xe902;" glyph-name="email" d="M853.333 618.667l-341.333-213.333-341.333 213.333v85.333l341.333-213.333 341.333 213.333zM853.333 789.333h-682.667c-47.36 0-85.333-37.973-85.333-85.333v-512c0-47.128 38.205-85.333 85.333-85.333v0h682.667c47.128 0 85.333 38.205 85.333 85.333v0 512c0 47.36-38.4 85.333-85.333 85.333z" />
<glyph unicode="&#xe903;" glyph-name="home" d="M426.667 106.667v256h170.667v-256h213.333v341.333h128l-426.667 384-426.667-384h128v-341.333h213.333z" />
<glyph unicode="&#xe904;" glyph-name="menu" d="M128 704h768v-85.333h-768v85.333zM128 490.667h768v-85.333h-768v85.333zM128 277.333h768v-85.333h-768v85.333z" />
<glyph unicode="&#xe905;" glyph-name="trending-up" d="M682.667 704l97.707-97.707-208.213-208.213-170.667 170.667-316.16-316.587 60.16-60.16 256 256 170.667-170.667 268.8 268.373 97.707-97.707v256h-256z" />
<glyph unicode="&#xe906;" glyph-name="dots-vertical" d="M512 277.333c47.128 0 85.333-38.205 85.333-85.333v0c0-47.128-38.205-85.333-85.333-85.333v0c-47.128 0-85.333 38.205-85.333 85.333v0c0 47.128 38.205 85.333 85.333 85.333v0zM512 533.333c47.128 0 85.333-38.205 85.333-85.333v0c0-47.128-38.205-85.333-85.333-85.333v0c-47.128 0-85.333 38.205-85.333 85.333v0c0 47.128 38.205 85.333 85.333 85.333v0zM512 789.333c47.128 0 85.333-38.205 85.333-85.333v0c0-47.128-38.205-85.333-85.333-85.333v0c-47.128 0-85.333 38.205-85.333 85.333v0c0 47.128 38.205 85.333 85.333 85.333v0z" />
<glyph unicode="&#xe90d;" glyph-name="bell-outline" d="M682.667 234.667h-384v277.333c0 106.667 85.333 192 192 192s192-85.333 192-192zM768 277.333v234.667c0 130.987-91.307 240.64-213.333 269.653v29.013c0 35.346-28.654 64-64 64v0c-35.346 0-64-28.654-64-64v0-29.013c-122.453-29.013-213.333-138.667-213.333-269.653v-234.667l-85.333-85.333v-42.667h725.333v42.667zM490.667 21.333c47.128 0 85.333 38.205 85.333 85.333v0h-170.667c0-47.128 38.205-85.333 85.333-85.333v0z" />
<glyph unicode="&#xe90e;" glyph-name="magnify" d="M405.333 832c153.167 0 277.333-124.166 277.333-277.333v0c0-68.693-25.173-131.84-66.56-180.48l11.52-11.52h33.707l213.333-213.333-64-64-213.333 213.333v33.707l-11.52 11.52c-48.64-41.387-111.787-66.56-180.48-66.56-153.167 0-277.333 124.166-277.333 277.333v0c0 153.167 124.166 277.333 277.333 277.333v0zM405.333 746.667c-106.667 0-192-85.333-192-192s85.333-192 192-192c106.667 0 192 85.333 192 192s-85.333 192-192 192z" />
</font></defs></svg>